…
::: {.cell}

:::

::: {.cell}
::: {.cell-output .cell-output-stdout}

```
# A tibble: 91 × 16
   course     par yardage yardage_4_5 yardage_3 adj_score_to_par adj_par_3_score
   <chr>    <dbl>   <dbl>       <dbl>     <dbl>            <dbl>           <dbl>
 1 Ocean C…    72    7671         489       207             2.57            0.29
 2 Torrey …    71    7635         490       194             2.57            0.18
 3 Torrey …    72    7584         486       194             1.13            0.09
 4 Pinehur…    70    7513         480       201             3.09            0.25
 5 Quail H…    71    7488         476       208             2.84            0.23
 6 Crooked…    72    7474         478       195            -0.32            0.13
 7 Augusta…    72    7470         481       182             2.12            0.18
 8 Medinah…    72    7470         477       199            -1.16            0.05
 9 Trump N…    72    7469         477       198             1.89            0.19
10 Wilming…    71    7424         475       194             0.17            0.1 
# ℹ 81 more rows
# ℹ 9 more variables: adj_par_4_score <dbl>, adj_par_5_score <dbl>,
#   adj_driving_distance <dbl>, adj_sd_distance <dbl>,
#   adj_driving_accuracy <dbl>, putt_sg <dbl>, arg_sg <dbl>, app_sg <dbl>,
#   ott_sg <dbl>
```
…
